{
    "display": "form",
    "components": [
        {
            "label": "Panel",
            "title": "\u0627\u062c\u0631\u0627\u06cc \u062f\u0633\u062a\u0648\u0631",
            "theme": "warning",
            "collapsible": false,
            "mask": false,
            "tableView": false,
            "alwaysEnabled": false,
            "type": "panel",
            "input": false,
            "key": "panel",
            "components": [
                {
                    "label": "Columns",
                    "columns": [
                        {
                            "components": [
                                {
                                    "label": "\u0646\u0627\u0645 \u06a9\u0627\u0645\u067e\u0648\u0646\u0646\u062a",
                                    "allowMultipleMasks": false,
                                    "showWordCount": false,
                                    "showCharCount": false,
                                    "tableView": true,
                                    "alwaysEnabled": false,
                                    "type": "textfield",
                                    "input": true,
                                    "key": "component",
                                    "validate": {
                                        "customMessage": "",
                                        "json": "",
                                        "required": false,
                                        "custom": "",
                                        "customPrivate": false,
                                        "minLength": "",
                                        "maxLength": "",
                                        "minWords": "",
                                        "maxWords": "",
                                        "pattern": ""
                                    },
                                    "properties": {
                                        
                                    },
                                    "tags": [
                                        
                                    ],
                                    "placeholder": "",
                                    "prefix": "",
                                    "customClass": "",
                                    "suffix": "",
                                    "multiple": false,
                                    "defaultValue": null,
                                    "protected": false,
                                    "unique": false,
                                    "persistent": true,
                                    "hidden": false,
                                    "clearOnHide": true,
                                    "dataGridLabel": false,
                                    "labelPosition": "top",
                                    "labelWidth": 30,
                                    "labelMargin": 3,
                                    "description": "",
                                    "errorLabel": "",
                                    "tooltip": "",
                                    "hideLabel": false,
                                    "tabindex": "",
                                    "disabled": false,
                                    "autofocus": false,
                                    "dbIndex": false,
                                    "customDefaultValue": "",
                                    "calculateValue": "",
                                    "allowCalculateOverride": false,
                                    "widget": {
                                        "format": "yyyy-MM-dd hh:mm a",
                                        "dateFormat": "yyyy-MM-dd hh:mm a",
                                        "saveAs": "text"
                                    },
                                    "refreshOn": "",
                                    "clearOnRefresh": false,
                                    "validateOn": "change",
                                    "conditional": {
                                        "show": null,
                                        "when": null,
                                        "eq": ""
                                    },
                                    "mask": false,
                                    "inputType": "text",
                                    "inputMask": "",
                                    "id": "eeagpj"
                                },
                                {
                                    "label": "\u0627\u0646\u062a\u062e\u0627\u0628 \u0646\u0648\u0639 \u0645\u0646\u0628\u0639",
                                    "mask": false,
                                    "tableView": true,
                                    "alwaysEnabled": false,
                                    "type": "select",
                                    "input": true,
                                    "key": "locationType",
                                    "defaultValue": "",
                                    "data": {
                                        "values": [
                                            {
                                                "label": "git",
                                                "value": "git"
                                            },
                                            {
                                                "label": "current",
                                                "value": "current"
                                            },
                                            {
                                                "label": "release",
                                                "value": "release"
                                            }
                                        ],
                                        "json": "",
                                        "url": "",
                                        "resource": "",
                                        "custom": ""
                                    },
                                    "encrypted": false,
                                    "properties": {
                                        
                                    },
                                    "tags": [
                                        
                                    ],
                                    "validate": {
                                        "required": true,
                                        "customMessage": "",
                                        "json": "",
                                        "custom": "",
                                        "customPrivate": false
                                    },
                                    "valueProperty": "value",
                                    "placeholder": "",
                                    "prefix": "",
                                    "customClass": "",
                                    "suffix": "",
                                    "multiple": false,
                                    "protected": false,
                                    "unique": false,
                                    "persistent": true,
                                    "hidden": false,
                                    "clearOnHide": true,
                                    "dataGridLabel": false,
                                    "labelPosition": "top",
                                    "labelWidth": 30,
                                    "labelMargin": 3,
                                    "description": "",
                                    "errorLabel": "",
                                    "tooltip": "",
                                    "hideLabel": false,
                                    "tabindex": "",
                                    "disabled": false,
                                    "autofocus": false,
                                    "dbIndex": false,
                                    "customDefaultValue": "",
                                    "calculateValue": "",
                                    "allowCalculateOverride": false,
                                    "widget": null,
                                    "refreshOn": "",
                                    "clearOnRefresh": false,
                                    "validateOn": "change",
                                    "conditional": {
                                        "show": null,
                                        "when": null,
                                        "eq": ""
                                    },
                                    "dataSrc": "values",
                                    "filter": "",
                                    "searchEnabled": true,
                                    "searchField": "",
                                    "minSearch": 0,
                                    "authenticate": false,
                                    "template": "<span>{{ item.label }}</span>",
                                    "selectFields": "",
                                    "id": "evknf6a"
                                }
                            ],
                            "width": 6,
                            "offset": 0,
                            "push": 0,
                            "pull": 0,
                            "type": "column",
                            "hideOnChildrenHidden": false,
                            "input": true,
                            "key": "",
                            "tableView": true,
                            "label": "",
                            "placeholder": "",
                            "prefix": "",
                            "customClass": "",
                            "suffix": "",
                            "multiple": false,
                            "defaultValue": null,
                            "protected": false,
                            "unique": false,
                            "persistent": true,
                            "hidden": false,
                            "clearOnHide": true,
                            "dataGridLabel": false,
                            "labelPosition": "top",
                            "labelWidth": 30,
                            "labelMargin": 3,
                            "description": "",
                            "errorLabel": "",
                            "tooltip": "",
                            "hideLabel": false,
                            "tabindex": "",
                            "disabled": false,
                            "autofocus": false,
                            "dbIndex": false,
                            "customDefaultValue": "",
                            "calculateValue": "",
                            "allowCalculateOverride": false,
                            "widget": null,
                            "refreshOn": "",
                            "clearOnRefresh": false,
                            "validateOn": "change",
                            "validate": {
                                "required": false,
                                "custom": "",
                                "customPrivate": false
                            },
                            "conditional": {
                                "show": null,
                                "when": null,
                                "eq": ""
                            },
                            "id": "ep1v42bj"
                        },
                        {
                            "components": [
                                {
                                    "label": "\u0646\u0648\u0639 \u062f\u0633\u062a\u0648\u0631",
                                    "mask": false,
                                    "tableView": true,
                                    "alwaysEnabled": false,
                                    "type": "select",
                                    "input": true,
                                    "key": "cmd",
                                    "defaultValue": "",
                                    "data": {
                                        "values": [
                                            {
                                                "label": "\u062f\u0631\u06cc\u0627\u0641\u062a \u06a9\u0627\u0645\u067e\u0648\u0646\u0646\u062a",
                                                "value": "getComponent"
                                            },
                                            {
                                                "label": "\u062f\u0631\u06cc\u0627\u0641\u062a \u06a9\u0627\u0645\u067e\u0648\u0646\u0646\u062a \u0647\u0627\u06cc \u067e\u06cc\u0634 \u0646\u06cc\u0627\u0632",
                                                "value": "getDepends"
                                            },
                                            {
                                                "label": "\u0628\u0631\u0648\u0632 \u0631\u0633\u0627\u0646\u06cc \u0647\u0645\u0647",
                                                "value": "gitPullAll"
                                            },
                                            {
                                                "label": "git status all",
                                                "value": "gitStatusAll"
                                            },
                                            {
                                                "label": "git upstream all",
                                                "value": "gitUpstreamAll"
                                            },
                                            {
                                                "label": "clean & pull & load all",
                                                "value": "cleanPullLoad"
                                            }
                                        ],
                                        "json": "",
                                        "url": "",
                                        "resource": "",
                                        "custom": ""
                                    },
                                    "encrypted": false,
                                    "valueProperty": "value",
                                    "properties": {
                                        
                                    },
                                    "tags": [
                                        
                                    ],
                                    "validate": {
                                        "required": true,
                                        "customMessage": "",
                                        "json": "",
                                        "custom": "",
                                        "customPrivate": false
                                    },
                                    "placeholder": "",
                                    "prefix": "",
                                    "customClass": "",
                                    "suffix": "",
                                    "multiple": false,
                                    "protected": false,
                                    "unique": false,
                                    "persistent": true,
                                    "hidden": false,
                                    "clearOnHide": true,
                                    "dataGridLabel": false,
                                    "labelPosition": "top",
                                    "labelWidth": 30,
                                    "labelMargin": 3,
                                    "description": "",
                                    "errorLabel": "",
                                    "tooltip": "",
                                    "hideLabel": false,
                                    "tabindex": "",
                                    "disabled": false,
                                    "autofocus": false,
                                    "dbIndex": false,
                                    "customDefaultValue": "",
                                    "calculateValue": "",
                                    "allowCalculateOverride": false,
                                    "widget": null,
                                    "refreshOn": "",
                                    "clearOnRefresh": false,
                                    "validateOn": "change",
                                    "conditional": {
                                        "show": null,
                                        "when": null,
                                        "eq": ""
                                    },
                                    "dataSrc": "values",
                                    "filter": "",
                                    "searchEnabled": true,
                                    "searchField": "",
                                    "minSearch": 0,
                                    "authenticate": false,
                                    "template": "<span>{{ item.label }}</span>",
                                    "selectFields": "",
                                    "id": "ewxg3k"
                                }
                            ],
                            "width": 6,
                            "offset": 0,
                            "push": 0,
                            "pull": 0,
                            "type": "column",
                            "hideOnChildrenHidden": false,
                            "input": true,
                            "key": "",
                            "tableView": true,
                            "label": "",
                            "placeholder": "",
                            "prefix": "",
                            "customClass": "",
                            "suffix": "",
                            "multiple": false,
                            "defaultValue": null,
                            "protected": false,
                            "unique": false,
                            "persistent": true,
                            "hidden": false,
                            "clearOnHide": true,
                            "dataGridLabel": false,
                            "labelPosition": "top",
                            "labelWidth": 30,
                            "labelMargin": 3,
                            "description": "",
                            "errorLabel": "",
                            "tooltip": "",
                            "hideLabel": false,
                            "tabindex": "",
                            "disabled": false,
                            "autofocus": false,
                            "dbIndex": false,
                            "customDefaultValue": "",
                            "calculateValue": "",
                            "allowCalculateOverride": false,
                            "widget": null,
                            "refreshOn": "",
                            "clearOnRefresh": false,
                            "validateOn": "change",
                            "validate": {
                                "required": false,
                                "custom": "",
                                "customPrivate": false
                            },
                            "conditional": {
                                "show": null,
                                "when": null,
                                "eq": ""
                            },
                            "id": "e3mcis"
                        }
                    ],
                    "mask": false,
                    "tableView": false,
                    "alwaysEnabled": false,
                    "type": "columns",
                    "input": false,
                    "key": "columns",
                    "placeholder": "",
                    "prefix": "",
                    "customClass": "",
                    "suffix": "",
                    "multiple": false,
                    "defaultValue": null,
                    "protected": false,
                    "unique": false,
                    "persistent": false,
                    "hidden": false,
                    "clearOnHide": false,
                    "dataGridLabel": false,
                    "labelPosition": "top",
                    "labelWidth": 30,
                    "labelMargin": 3,
                    "description": "",
                    "errorLabel": "",
                    "tooltip": "",
                    "hideLabel": false,
                    "tabindex": "",
                    "disabled": false,
                    "autofocus": false,
                    "dbIndex": false,
                    "customDefaultValue": "",
                    "calculateValue": "",
                    "allowCalculateOverride": false,
                    "widget": null,
                    "refreshOn": "",
                    "clearOnRefresh": false,
                    "validateOn": "change",
                    "validate": {
                        "required": false,
                        "custom": "",
                        "customPrivate": false
                    },
                    "conditional": {
                        "show": null,
                        "when": null,
                        "eq": ""
                    },
                    "autoAdjust": false,
                    "hideOnChildrenHidden": false,
                    "id": "ex1d868"
                }
            ],
            "placeholder": "",
            "prefix": "",
            "customClass": "",
            "suffix": "",
            "multiple": false,
            "defaultValue": null,
            "protected": false,
            "unique": false,
            "persistent": false,
            "hidden": false,
            "clearOnHide": false,
            "dataGridLabel": false,
            "labelPosition": "top",
            "labelWidth": 30,
            "labelMargin": 3,
            "description": "",
            "errorLabel": "",
            "tooltip": "",
            "hideLabel": false,
            "tabindex": "",
            "disabled": false,
            "autofocus": false,
            "dbIndex": false,
            "customDefaultValue": "",
            "calculateValue": "",
            "allowCalculateOverride": false,
            "widget": null,
            "refreshOn": "",
            "clearOnRefresh": false,
            "validateOn": "change",
            "validate": {
                "required": false,
                "custom": "",
                "customPrivate": false
            },
            "conditional": {
                "show": null,
                "when": null,
                "eq": ""
            },
            "breadcrumb": "default",
            "id": "em3b02b7"
        },
        {
            "label": "Columns",
            "columns": [
                {
                    "components": [
                        {
                            "label": "\u0627\u0631\u0633\u0627\u0644",
                            "theme": "primary",
                            "shortcut": "",
                            "block": true,
                            "disableOnInvalid": true,
                            "mask": false,
                            "tableView": true,
                            "alwaysEnabled": false,
                            "type": "button",
                            "key": "submit",
                            "input": true,
                            "placeholder": "",
                            "prefix": "",
                            "customClass": "",
                            "suffix": "",
                            "multiple": false,
                            "defaultValue": null,
                            "protected": false,
                            "unique": false,
                            "persistent": false,
                            "hidden": false,
                            "clearOnHide": true,
                            "dataGridLabel": true,
                            "labelPosition": "top",
                            "labelWidth": 30,
                            "labelMargin": 3,
                            "description": "",
                            "errorLabel": "",
                            "tooltip": "",
                            "hideLabel": false,
                            "tabindex": "",
                            "disabled": false,
                            "autofocus": false,
                            "dbIndex": false,
                            "customDefaultValue": "",
                            "calculateValue": "",
                            "allowCalculateOverride": false,
                            "widget": null,
                            "refreshOn": "",
                            "clearOnRefresh": false,
                            "validateOn": "change",
                            "validate": {
                                "required": false,
                                "custom": "",
                                "customPrivate": false
                            },
                            "conditional": {
                                "show": null,
                                "when": null,
                                "eq": ""
                            },
                            "size": "md",
                            "leftIcon": "",
                            "rightIcon": "",
                            "action": "submit",
                            "id": "epgmhna"
                        }
                    ],
                    "width": 6,
                    "offset": 0,
                    "push": 0,
                    "pull": 0,
                    "type": "column",
                    "hideOnChildrenHidden": false,
                    "input": true,
                    "key": "",
                    "tableView": true,
                    "label": "",
                    "placeholder": "",
                    "prefix": "",
                    "customClass": "",
                    "suffix": "",
                    "multiple": false,
                    "defaultValue": null,
                    "protected": false,
                    "unique": false,
                    "persistent": true,
                    "hidden": false,
                    "clearOnHide": true,
                    "dataGridLabel": false,
                    "labelPosition": "top",
                    "labelWidth": 30,
                    "labelMargin": 3,
                    "description": "",
                    "errorLabel": "",
                    "tooltip": "",
                    "hideLabel": false,
                    "tabindex": "",
                    "disabled": false,
                    "autofocus": false,
                    "dbIndex": false,
                    "customDefaultValue": "",
                    "calculateValue": "",
                    "allowCalculateOverride": false,
                    "widget": null,
                    "refreshOn": "",
                    "clearOnRefresh": false,
                    "validateOn": "change",
                    "validate": {
                        "required": false,
                        "custom": "",
                        "customPrivate": false
                    },
                    "conditional": {
                        "show": null,
                        "when": null,
                        "eq": ""
                    },
                    "id": "eyiwvt"
                },
                {
                    "components": [
                        
                    ],
                    "width": 6,
                    "offset": 0,
                    "push": 0,
                    "pull": 0,
                    "type": "column",
                    "hideOnChildrenHidden": false,
                    "input": true,
                    "key": "",
                    "tableView": true,
                    "label": "",
                    "placeholder": "",
                    "prefix": "",
                    "customClass": "",
                    "suffix": "",
                    "multiple": false,
                    "defaultValue": null,
                    "protected": false,
                    "unique": false,
                    "persistent": true,
                    "hidden": false,
                    "clearOnHide": true,
                    "dataGridLabel": false,
                    "labelPosition": "top",
                    "labelWidth": 30,
                    "labelMargin": 3,
                    "description": "",
                    "errorLabel": "",
                    "tooltip": "",
                    "hideLabel": false,
                    "tabindex": "",
                    "disabled": false,
                    "autofocus": false,
                    "dbIndex": false,
                    "customDefaultValue": "",
                    "calculateValue": "",
                    "allowCalculateOverride": false,
                    "widget": null,
                    "refreshOn": "",
                    "clearOnRefresh": false,
                    "validateOn": "change",
                    "validate": {
                        "required": false,
                        "custom": "",
                        "customPrivate": false
                    },
                    "conditional": {
                        "show": null,
                        "when": null,
                        "eq": ""
                    },
                    "id": "e7iz8xp"
                }
            ],
            "mask": false,
            "tableView": false,
            "alwaysEnabled": false,
            "type": "columns",
            "input": false,
            "key": "columns2",
            "placeholder": "",
            "prefix": "",
            "customClass": "",
            "suffix": "",
            "multiple": false,
            "defaultValue": null,
            "protected": false,
            "unique": false,
            "persistent": false,
            "hidden": false,
            "clearOnHide": false,
            "dataGridLabel": false,
            "labelPosition": "top",
            "labelWidth": 30,
            "labelMargin": 3,
            "description": "",
            "errorLabel": "",
            "tooltip": "",
            "hideLabel": false,
            "tabindex": "",
            "disabled": false,
            "autofocus": false,
            "dbIndex": false,
            "customDefaultValue": "",
            "calculateValue": "",
            "allowCalculateOverride": false,
            "widget": null,
            "refreshOn": "",
            "clearOnRefresh": false,
            "validateOn": "change",
            "validate": {
                "required": false,
                "custom": "",
                "customPrivate": false
            },
            "conditional": {
                "show": null,
                "when": null,
                "eq": ""
            },
            "autoAdjust": false,
            "hideOnChildrenHidden": false,
            "id": "eq05cxh"
        }
    ]
}