{
  "components": [
    {
      "input": true,
      "tableView": true,
      "label": "معرفی نامه برای استعلام از دستگاه ها",
      "key": "letterOfIntroductionForDevicesInquiry",
      "image": false,
      "imageSize": "200",
      "placeholder": "",
      "multiple": true,
      "defaultValue": "",
      "protected": false,
      "persistent": true,
      "hidden": false,
      "clearOnHide": false,
      "filePattern": "*",
      "fileMinSize": "0KB",
      "fileMaxSize": "1GB",
      "type": "file",
      "labelPosition": "top",
      "tags": [],
      "conditional": {
        "show": "",
        "when": null,
        "eq": ""
      },
      "properties": {
        "": ""
      },
      "storage": "url",
      "validate": {
        "required": false
      },
      "lockKey": true,
      "disabled": false,
      "hideLabel": false,
      "$$hashKey": "object:836",
      "url": "/rest/s1/trn/common/file"
    }

  ],
  "display": "form",
  "page": 0
}