{
  "components": [
    {
      "clearOnHide": false,
      "key": "createEmploymentPanel",
      "input": false,
      "title": "ویرایش اطلاعات صفحه ورود به سامانه",
      "theme": "info",
      "tableView": false,
      "components": [
        {
          "input": true,
          "tree": true,
          "components": [
            {
              "input": true,
              "tableView": true,
              "key": "original",
              "label": "original",
              "protected": false,
              "unique": false,
              "persistent": true,
              "type": "hidden",
              "tags": [],
              "conditional": {
                "show": "",
                "when": null,
                "eq": ""
              },
              "properties": {
                "": ""
              },
              "lockKey": true,
              "$$hashKey": "object:441",
              "hideLabel": false
            },
            {
              "input": true,
              "tableView": true,
              "key": "locale",
              "label": "locale",
              "protected": false,
              "unique": false,
              "persistent": true,
              "type": "hidden",
              "tags": [],
              "conditional": {
                "show": "",
                "when": null,
                "eq": ""
              },
              "properties": {
                "": ""
              },
              "lockKey": true,
              "$$hashKey": "object:493",
              "hideLabel": false
            },
            {
              "input": true,
              "tableView": true,
              "inputType": "text",
              "inputMask": "",
              "label": "عنوان بالای صفحه ورود (منو)",
              "key": "localized",
              "placeholder": "",
              "prefix": "",
              "suffix": "",
              "multiple": false,
              "defaultValue": "",
              "protected": false,
              "unique": false,
              "persistent": true,
              "hidden": false,
              "clearOnHide": true,
              "validate": {
                "required": false,
                "minLength": "",
                "maxLength": "",
                "pattern": "",
                "custom": "",
                "customPrivate": false
              },
              "conditional": {
                "show": "",
                "when": null,
                "eq": ""
              },
              "type": "textfield",
              "labelPosition": "top",
              "tags": [],
              "properties": {
                "": ""
              },
              "lockKey": true,
              "$$hashKey": "object:546",
              "hideLabel": false,
              "customClass": ""
            }
          ],
          "tableView": true,
          "label": "",
          "key": "lMessage",
          "protected": false,
          "persistent": true,
          "clearOnHide": true,
          "type": "container",
          "$$hashKey": "object:289",
          "hideLabel": false,
          "labelPosition": "top",
          "tags": [],
          "conditional": {
            "show": "",
            "when": null,
            "eq": ""
          },
          "properties": {
            "": ""
          },
          "lockKey": true
        },
        {
          "input": true,
          "tree": true,
          "components": [
            {
              "input": true,
              "tableView": true,
              "key": "original2",
              "label": "original2",
              "protected": false,
              "unique": false,
              "persistent": true,
              "type": "hidden",
              "tags": [],
              "conditional": {
                "show": "",
                "when": null,
                "eq": ""
              },
              "properties": {
                "": ""
              },
              "lockKey": true,
              "hideLabel": false,
              "$$hashKey": "object:1421"
            },
            {
              "input": true,
              "tableView": true,
              "key": "locale2",
              "label": "locale2",
              "protected": false,
              "unique": false,
              "persistent": true,
              "type": "hidden",
              "tags": [],
              "conditional": {
                "show": "",
                "when": null,
                "eq": ""
              },
              "properties": {
                "": ""
              },
              "lockKey": true,
              "hideLabel": false,
              "$$hashKey": "object:1422"
            },
            {
              "input": true,
              "tableView": true,
              "inputType": "text",
              "inputMask": "",
              "label": "عنوان باکس ورود به سامانه",
              "key": "localized2",
              "placeholder": "",
              "prefix": "",
              "suffix": "",
              "multiple": false,
              "defaultValue": "",
              "protected": false,
              "unique": false,
              "persistent": true,
              "hidden": false,
              "clearOnHide": true,
              "validate": {
                "required": false,
                "minLength": "",
                "maxLength": "",
                "pattern": "",
                "custom": "",
                "customPrivate": false
              },
              "conditional": {
                "show": "",
                "when": null,
                "eq": ""
              },
              "type": "textfield",
              "labelPosition": "top",
              "tags": [],
              "properties": {
                "": ""
              },
              "lockKey": true,
              "hideLabel": false,
              "$$hashKey": "object:1423",
              "customClass": ""
            }
          ],
          "tableView": true,
          "label": "",
          "key": "lMessage2",
          "protected": false,
          "persistent": true,
          "clearOnHide": true,
          "type": "container",
          "hideLabel": false,
          "labelPosition": "top",
          "tags": [],
          "conditional": {
            "show": "",
            "when": null,
            "eq": ""
          },
          "properties": {
            "": ""
          },
          "lockKey": true,
          "$$hashKey": "object:1407"
        },
        {
          "input": true,
          "label": "ویرایش",
          "tableView": false,
          "key": "createEmploymentPanelSubmit",
          "size": "md",
          "leftIcon": "",
          "rightIcon": "",
          "block": false,
          "action": "submit",
          "disableOnInvalid": false,
          "theme": "primary",
          "type": "button",
          "hideLabel": false,
          "tags": [],
          "conditional": {
            "show": "",
            "when": null,
            "eq": ""
          },
          "properties": {
            "": ""
          },
          "$$hashKey": "object:321"
        }
      ],
      "type": "panel",
      "breadcrumb": "default",
      "$$hashKey": "object:176",
      "hideLabel": false,
      "tags": [],
      "conditional": {
        "show": "",
        "when": null,
        "eq": ""
      },
      "properties": {
        "": ""
      },
      "lockKey": true,
      "style": {
        "margin-top": "",
        "margin-right": "",
        "margin-bottom": "",
        "margin-left": ""
      },
      "isNew": false
    }
  ],
  "display": "form",
  "page": 0
}