{
  "components": [
    {
      "label": "\u0622\u067e\u0644\u0648\u062f \u0645\u0646\u0634\u0648\u0631 \u067e\u0631\u0648\u0698\u0647",
      "multiple": true,
      "clearOnHide": false,
      "mask": false,
      "tableView": true,
      "alwaysEnabled": false,
      "type": "file",
      "input": true,
      "key": "manshorFile",
      "defaultValue": "",
      "tags": [],
      "conditional": {
        "show": "",
        "when": null,
        "eq": ""
      },
      "properties": {
        "": ""
      },
      "storage": "url",
      "url": "/rest/s1/trn/common/file/nioce.common.ProjectFile",
      "validate": {
        "required": true,
        "custom": "",
        "customPrivate": false
      },
      "lockKey": true,
      "$$hashKey": "object:1635",
      "isNew": false,
      "dir": "",
      "webcam": false,
      "fileTypes": [
        {
          "label": "",
          "value": ""
        }
      ],
      "placeholder": "",
      "prefix": "",
      "customClass": "",
      "suffix": "",
      "protected": false,
      "unique": false,
      "persistent": true,
      "hidden": false,
      "dataGridLabel": false,
      "labelPosition": "top",
      "labelWidth": 30,
      "labelMargin": 3,
      "description": "",
      "errorLabel": "",
      "tooltip": "",
      "hideLabel": false,
      "tabindex": "",
      "disabled": false,
      "autofocus": false,
      "dbIndex": false,
      "customDefaultValue": "",
      "calculateValue": "",
      "allowCalculateOverride": false,
      "widget": null,
      "refreshOn": "",
      "clearOnRefresh": false,
      "validateOn": "change",
      "image": false,
      "privateDownload": false,
      "imageSize": "200",
      "filePattern": "*",
      "fileMinSize": "0KB",
      "fileMaxSize": "1GB",
      "uploadOnly": false,
      "id": "eu8sfrb"
    },
    {
      "input": true,
      "components": [
        {
          "input": true,
          "tableView": true,
          "label": "\u0646\u0627\u0645 \u06af\u0632\u0627\u0631\u0634 \u0627\u0645\u0627\u062f\u0647 \u0634\u062f\u0647",
          "key": "productName",
          "defaultValue": "",
          "clearOnHide": false,
          "validate": {
            "required": true,
            "custom": "",
            "customPrivate": false,
            "minLength": "",
            "maxLength": "",
            "minWords": "",
            "maxWords": "",
            "pattern": ""
          },
          "conditional": {
            "show": "",
            "when": null,
            "eq": ""
          },
          "type": "textfield",
          "tags": [],
          "properties": {
            "": ""
          },
          "lockKey": true,
          "$$hashKey": "object:1546",
          "hideLabel": true,
          "row": "0-0"
        },
        {
          "label": "productId",
          "allowMultipleMasks": false,
          "showWordCount": false,
          "showCharCount": false,
          "clearOnHide": false,
          "disabled": true,
          "tableView": true,
          "alwaysEnabled": false,
          "type": "textfield",
          "input": true,
          "key": "productId",
          "properties": {},
          "tags": [],
          "widget": {
            "type": "",
            "format": "yyyy-MM-dd hh:mm a",
            "dateFormat": "yyyy-MM-dd hh:mm a",
            "saveAs": "text"
          },
          "row": "0-1"
        }
      ],
      "tableView": true,
      "label": "",
      "key": "proItems",
      "type": "datagrid",
      "$$hashKey": "object:1347",
      "tags": [],
      "conditional": {
        "show": "",
        "when": null,
        "eq": ""
      },
      "properties": {
        "": ""
      },
      "placeholder": "",
      "prefix": "",
      "customClass": "",
      "suffix": "",
      "multiple": false,
      "defaultValue": null,
      "protected": false,
      "unique": false,
      "persistent": true,
      "hidden": false,
      "clearOnHide": true,
      "dataGridLabel": false,
      "labelPosition": "top",
      "labelWidth": 30,
      "labelMargin": 3,
      "description": "",
      "errorLabel": "",
      "tooltip": "",
      "hideLabel": false,
      "tabindex": "",
      "disabled": false,
      "autofocus": false,
      "dbIndex": false,
      "customDefaultValue": "",
      "calculateValue": "",
      "allowCalculateOverride": false,
      "widget": null,
      "refreshOn": "",
      "clearOnRefresh": false,
      "validateOn": "change",
      "validate": {
        "required": false,
        "custom": "",
        "customPrivate": false
      },
      "tree": true,
      "id": "e3z00u"
    }
  ],
  "display": "form",
  "page": 0
}